-- Merging decision tree log ---
manifest
ADDED from /Users/swaroop.dantu/Downloads/android-BluetoothChat-master/Application/src/main/AndroidManifest.xml:18:1-69:12
INJECTED from /Users/swaroop.dantu/Downloads/android-BluetoothChat-master/Application/src/main/AndroidManifest.xml:18:1-69:12
INJECTED from /Users/swaroop.dantu/Downloads/android-BluetoothChat-master/Application/src/main/AndroidManifest.xml:18:1-69:12
MERGED from [com.android.support:support-v4:27.0.2] /Users/swaroop.dantu/.gradle/caches/transforms-1/files-1.1/support-v4-27.0.2.aar/76a3eb3bd95d0879c82e580249eb2c23/AndroidManifest.xml:17:1-22:12
MERGED from [com.android.support:gridlayout-v7:27.0.2] /Users/swaroop.dantu/.gradle/caches/transforms-1/files-1.1/gridlayout-v7-27.0.2.aar/2c3fd5a511ec699ea0ffb746a8e0654f/AndroidManifest.xml:17:1-22:12
MERGED from [com.android.support:cardview-v7:27.0.2] /Users/swaroop.dantu/.gradle/caches/transforms-1/files-1.1/cardview-v7-27.0.2.aar/18811615ec445e01759b286e892e572c/AndroidManifest.xml:17:1-22:12
MERGED from [com.android.support:appcompat-v7:27.0.2] /Users/swaroop.dantu/.gradle/caches/transforms-1/files-1.1/appcompat-v7-27.0.2.aar/3d22f8dc310e816febf24846fe58161f/AndroidManifest.xml:17:1-22:12
MERGED from [com.android.support:support-media-compat:27.0.2] /Users/swaroop.dantu/.gradle/caches/transforms-1/files-1.1/support-media-compat-27.0.2.aar/e7b768427fa737e3ea8e00530ab15ab3/AndroidManifest.xml:17:1-22:12
MERGED from [com.android.support:support-fragment:27.0.2] /Users/swaroop.dantu/.gradle/caches/transforms-1/files-1.1/support-fragment-27.0.2.aar/46ed9dc0e3375dd7ef081374df58f217/AndroidManifest.xml:17:1-22:12
MERGED from [com.android.support:support-core-utils:27.0.2] /Users/swaroop.dantu/.gradle/caches/transforms-1/files-1.1/support-core-utils-27.0.2.aar/761fe16c9f7c006ac7b7ae1484528192/AndroidManifest.xml:17:1-22:12
MERGED from [com.android.support:animated-vector-drawable:27.0.2] /Users/swaroop.dantu/.gradle/caches/transforms-1/files-1.1/animated-vector-drawable-27.0.2.aar/122ca34ebb20a18bd87e517e6347c7d2/AndroidManifest.xml:17:1-22:12
MERGED from [com.android.support:support-core-ui:27.0.2] /Users/swaroop.dantu/.gradle/caches/transforms-1/files-1.1/support-core-ui-27.0.2.aar/dd3feaee0acd19cdc9234a2651b8531b/AndroidManifest.xml:17:1-22:12
MERGED from [com.android.support:support-vector-drawable:27.0.2] /Users/swaroop.dantu/.gradle/caches/transforms-1/files-1.1/support-vector-drawable-27.0.2.aar/061bdeb834fdc7caf18e472a14787d5e/AndroidManifest.xml:17:1-22:12
MERGED from [com.android.support:support-compat:27.0.2] /Users/swaroop.dantu/.gradle/caches/transforms-1/files-1.1/support-compat-27.0.2.aar/c8459984664e545cbb8a209cd8e3ee5f/AndroidManifest.xml:17:1-22:12
MERGED from [android.arch.lifecycle:runtime:1.0.3] /Users/swaroop.dantu/.gradle/caches/transforms-1/files-1.1/runtime-1.0.3.aar/5d032881692328e2911aedde37367c81/AndroidManifest.xml:17:1-24:12
INJECTED from /Users/swaroop.dantu/Downloads/android-BluetoothChat-master/Application/src/main/AndroidManifest.xml:18:1-69:12
INJECTED from /Users/swaroop.dantu/Downloads/android-BluetoothChat-master/Application/src/main/AndroidManifest.xml:18:1-69:12
	package
		ADDED from /Users/swaroop.dantu/Downloads/android-BluetoothChat-master/Application/src/main/AndroidManifest.xml:19:5-48
	android:versionName
		ADDED from /Users/swaroop.dantu/Downloads/android-BluetoothChat-master/Application/src/main/AndroidManifest.xml:22:5-30
		INJECTED from /Users/swaroop.dantu/Downloads/android-BluetoothChat-master/Application/src/main/AndroidManifest.xml
		INJECTED from /Users/swaroop.dantu/Downloads/android-BluetoothChat-master/Application/src/main/AndroidManifest.xml
	xmlns:android
		ADDED from /Users/swaroop.dantu/Downloads/android-BluetoothChat-master/Application/src/main/AndroidManifest.xml:20:5-63
	android:versionCode
		ADDED from /Users/swaroop.dantu/Downloads/android-BluetoothChat-master/Application/src/main/AndroidManifest.xml:21:5-28
		INJECTED from /Users/swaroop.dantu/Downloads/android-BluetoothChat-master/Application/src/main/AndroidManifest.xml
		INJECTED from /Users/swaroop.dantu/Downloads/android-BluetoothChat-master/Application/src/main/AndroidManifest.xml
uses-permission#android.permission.BLUETOOTH_ADMIN
ADDED from /Users/swaroop.dantu/Downloads/android-BluetoothChat-master/Application/src/main/AndroidManifest.xml:26:5-73
	android:name
		ADDED from /Users/swaroop.dantu/Downloads/android-BluetoothChat-master/Application/src/main/AndroidManifest.xml:26:22-71
uses-permission#android.permission.BLUETOOTH
ADDED from /Users/swaroop.dantu/Downloads/android-BluetoothChat-master/Application/src/main/AndroidManifest.xml:27:5-67
	android:name
		ADDED from /Users/swaroop.dantu/Downloads/android-BluetoothChat-master/Application/src/main/AndroidManifest.xml:27:22-65
application
ADDED from /Users/swaroop.dantu/Downloads/android-BluetoothChat-master/Application/src/main/AndroidManifest.xml:29:5-67:19
	android:label
		ADDED from /Users/swaroop.dantu/Downloads/android-BluetoothChat-master/Application/src/main/AndroidManifest.xml:32:9-41
	android:icon
		ADDED from /Users/swaroop.dantu/Downloads/android-BluetoothChat-master/Application/src/main/AndroidManifest.xml:31:9-45
	android:allowBackup
		ADDED from /Users/swaroop.dantu/Downloads/android-BluetoothChat-master/Application/src/main/AndroidManifest.xml:30:9-35
	android:theme
		ADDED from /Users/swaroop.dantu/Downloads/android-BluetoothChat-master/Application/src/main/AndroidManifest.xml:33:9-40
activity#com.example.android.bluetoothchat.MainActivity
ADDED from /Users/swaroop.dantu/Downloads/android-BluetoothChat-master/Application/src/main/AndroidManifest.xml:35:9-43:20
	android:label
		ADDED from /Users/swaroop.dantu/Downloads/android-BluetoothChat-master/Application/src/main/AndroidManifest.xml:38:13-45
	android:configChanges
		ADDED from /Users/swaroop.dantu/Downloads/android-BluetoothChat-master/Application/src/main/AndroidManifest.xml:37:13-63
	android:name
		ADDED from /Users/swaroop.dantu/Downloads/android-BluetoothChat-master/Application/src/main/AndroidManifest.xml:36:13-41
intent-filter#android.intent.action.MAIN+android.intent.category.LAUNCHER
ADDED from /Users/swaroop.dantu/Downloads/android-BluetoothChat-master/Application/src/main/AndroidManifest.xml:39:13-42:29
action#android.intent.action.MAIN
ADDED from /Users/swaroop.dantu/Downloads/android-BluetoothChat-master/Application/src/main/AndroidManifest.xml:40:17-68
	android:name
		ADDED from /Users/swaroop.dantu/Downloads/android-BluetoothChat-master/Application/src/main/AndroidManifest.xml:40:25-66
category#android.intent.category.LAUNCHER
ADDED from /Users/swaroop.dantu/Downloads/android-BluetoothChat-master/Application/src/main/AndroidManifest.xml:41:17-76
	android:name
		ADDED from /Users/swaroop.dantu/Downloads/android-BluetoothChat-master/Application/src/main/AndroidManifest.xml:41:27-74
activity#com.example.android.bluetoothchat.DeviceListActivity
ADDED from /Users/swaroop.dantu/Downloads/android-BluetoothChat-master/Application/src/main/AndroidManifest.xml:45:9-49:63
	android:label
		ADDED from /Users/swaroop.dantu/Downloads/android-BluetoothChat-master/Application/src/main/AndroidManifest.xml:48:13-50
	android:configChanges
		ADDED from /Users/swaroop.dantu/Downloads/android-BluetoothChat-master/Application/src/main/AndroidManifest.xml:47:13-63
	android:theme
		ADDED from /Users/swaroop.dantu/Downloads/android-BluetoothChat-master/Application/src/main/AndroidManifest.xml:49:13-61
	android:name
		ADDED from /Users/swaroop.dantu/Downloads/android-BluetoothChat-master/Application/src/main/AndroidManifest.xml:46:13-47
service#com.example.android.bluetoothchat.AndroidDvlprKeyboard
ADDED from /Users/swaroop.dantu/Downloads/android-BluetoothChat-master/Application/src/main/AndroidManifest.xml:51:9-65:19
	android:label
		ADDED from /Users/swaroop.dantu/Downloads/android-BluetoothChat-master/Application/src/main/AndroidManifest.xml:53:13-49
	android:permission
		ADDED from /Users/swaroop.dantu/Downloads/android-BluetoothChat-master/Application/src/main/AndroidManifest.xml:54:13-70
	android:name
		ADDED from /Users/swaroop.dantu/Downloads/android-BluetoothChat-master/Application/src/main/AndroidManifest.xml:52:13-49
meta-data#android.view.im
ADDED from /Users/swaroop.dantu/Downloads/android-BluetoothChat-master/Application/src/main/AndroidManifest.xml:56:13-57:19
	android:resource
		ADDED from /Users/swaroop.dantu/Downloads/android-BluetoothChat-master/Application/src/main/AndroidManifest.xml:56:55-85
	android:name
		ADDED from /Users/swaroop.dantu/Downloads/android-BluetoothChat-master/Application/src/main/AndroidManifest.xml:56:24-54
intent-filter#android.view.InputMethod
ADDED from /Users/swaroop.dantu/Downloads/android-BluetoothChat-master/Application/src/main/AndroidManifest.xml:59:13-63:29
action#android.view.InputMethod
ADDED from /Users/swaroop.dantu/Downloads/android-BluetoothChat-master/Application/src/main/AndroidManifest.xml:61:17-66
	android:name
		ADDED from /Users/swaroop.dantu/Downloads/android-BluetoothChat-master/Application/src/main/AndroidManifest.xml:61:25-64
uses-sdk
INJECTED from /Users/swaroop.dantu/Downloads/android-BluetoothChat-master/Application/src/main/AndroidManifest.xml reason: use-sdk injection requested
INJECTED from /Users/swaroop.dantu/Downloads/android-BluetoothChat-master/Application/src/main/AndroidManifest.xml
INJECTED from /Users/swaroop.dantu/Downloads/android-BluetoothChat-master/Application/src/main/AndroidManifest.xml
MERGED from [com.android.support:support-v4:27.0.2] /Users/swaroop.dantu/.gradle/caches/transforms-1/files-1.1/support-v4-27.0.2.aar/76a3eb3bd95d0879c82e580249eb2c23/AndroidManifest.xml:20:5-44
MERGED from [com.android.support:support-v4:27.0.2] /Users/swaroop.dantu/.gradle/caches/transforms-1/files-1.1/support-v4-27.0.2.aar/76a3eb3bd95d0879c82e580249eb2c23/AndroidManifest.xml:20:5-44
MERGED from [com.android.support:gridlayout-v7:27.0.2] /Users/swaroop.dantu/.gradle/caches/transforms-1/files-1.1/gridlayout-v7-27.0.2.aar/2c3fd5a511ec699ea0ffb746a8e0654f/AndroidManifest.xml:20:5-44
MERGED from [com.android.support:gridlayout-v7:27.0.2] /Users/swaroop.dantu/.gradle/caches/transforms-1/files-1.1/gridlayout-v7-27.0.2.aar/2c3fd5a511ec699ea0ffb746a8e0654f/AndroidManifest.xml:20:5-44
MERGED from [com.android.support:cardview-v7:27.0.2] /Users/swaroop.dantu/.gradle/caches/transforms-1/files-1.1/cardview-v7-27.0.2.aar/18811615ec445e01759b286e892e572c/AndroidManifest.xml:20:5-44
MERGED from [com.android.support:cardview-v7:27.0.2] /Users/swaroop.dantu/.gradle/caches/transforms-1/files-1.1/cardview-v7-27.0.2.aar/18811615ec445e01759b286e892e572c/AndroidManifest.xml:20:5-44
MERGED from [com.android.support:appcompat-v7:27.0.2] /Users/swaroop.dantu/.gradle/caches/transforms-1/files-1.1/appcompat-v7-27.0.2.aar/3d22f8dc310e816febf24846fe58161f/AndroidManifest.xml:20:5-44
MERGED from [com.android.support:appcompat-v7:27.0.2] /Users/swaroop.dantu/.gradle/caches/transforms-1/files-1.1/appcompat-v7-27.0.2.aar/3d22f8dc310e816febf24846fe58161f/AndroidManifest.xml:20:5-44
MERGED from [com.android.support:support-media-compat:27.0.2] /Users/swaroop.dantu/.gradle/caches/transforms-1/files-1.1/support-media-compat-27.0.2.aar/e7b768427fa737e3ea8e00530ab15ab3/AndroidManifest.xml:20:5-44
MERGED from [com.android.support:support-media-compat:27.0.2] /Users/swaroop.dantu/.gradle/caches/transforms-1/files-1.1/support-media-compat-27.0.2.aar/e7b768427fa737e3ea8e00530ab15ab3/AndroidManifest.xml:20:5-44
MERGED from [com.android.support:support-fragment:27.0.2] /Users/swaroop.dantu/.gradle/caches/transforms-1/files-1.1/support-fragment-27.0.2.aar/46ed9dc0e3375dd7ef081374df58f217/AndroidManifest.xml:20:5-44
MERGED from [com.android.support:support-fragment:27.0.2] /Users/swaroop.dantu/.gradle/caches/transforms-1/files-1.1/support-fragment-27.0.2.aar/46ed9dc0e3375dd7ef081374df58f217/AndroidManifest.xml:20:5-44
MERGED from [com.android.support:support-core-utils:27.0.2] /Users/swaroop.dantu/.gradle/caches/transforms-1/files-1.1/support-core-utils-27.0.2.aar/761fe16c9f7c006ac7b7ae1484528192/AndroidManifest.xml:20:5-44
MERGED from [com.android.support:support-core-utils:27.0.2] /Users/swaroop.dantu/.gradle/caches/transforms-1/files-1.1/support-core-utils-27.0.2.aar/761fe16c9f7c006ac7b7ae1484528192/AndroidManifest.xml:20:5-44
MERGED from [com.android.support:animated-vector-drawable:27.0.2] /Users/swaroop.dantu/.gradle/caches/transforms-1/files-1.1/animated-vector-drawable-27.0.2.aar/122ca34ebb20a18bd87e517e6347c7d2/AndroidManifest.xml:20:5-44
MERGED from [com.android.support:animated-vector-drawable:27.0.2] /Users/swaroop.dantu/.gradle/caches/transforms-1/files-1.1/animated-vector-drawable-27.0.2.aar/122ca34ebb20a18bd87e517e6347c7d2/AndroidManifest.xml:20:5-44
MERGED from [com.android.support:support-core-ui:27.0.2] /Users/swaroop.dantu/.gradle/caches/transforms-1/files-1.1/support-core-ui-27.0.2.aar/dd3feaee0acd19cdc9234a2651b8531b/AndroidManifest.xml:20:5-44
MERGED from [com.android.support:support-core-ui:27.0.2] /Users/swaroop.dantu/.gradle/caches/transforms-1/files-1.1/support-core-ui-27.0.2.aar/dd3feaee0acd19cdc9234a2651b8531b/AndroidManifest.xml:20:5-44
MERGED from [com.android.support:support-vector-drawable:27.0.2] /Users/swaroop.dantu/.gradle/caches/transforms-1/files-1.1/support-vector-drawable-27.0.2.aar/061bdeb834fdc7caf18e472a14787d5e/AndroidManifest.xml:20:5-44
MERGED from [com.android.support:support-vector-drawable:27.0.2] /Users/swaroop.dantu/.gradle/caches/transforms-1/files-1.1/support-vector-drawable-27.0.2.aar/061bdeb834fdc7caf18e472a14787d5e/AndroidManifest.xml:20:5-44
MERGED from [com.android.support:support-compat:27.0.2] /Users/swaroop.dantu/.gradle/caches/transforms-1/files-1.1/support-compat-27.0.2.aar/c8459984664e545cbb8a209cd8e3ee5f/AndroidManifest.xml:20:5-44
MERGED from [com.android.support:support-compat:27.0.2] /Users/swaroop.dantu/.gradle/caches/transforms-1/files-1.1/support-compat-27.0.2.aar/c8459984664e545cbb8a209cd8e3ee5f/AndroidManifest.xml:20:5-44
MERGED from [android.arch.lifecycle:runtime:1.0.3] /Users/swaroop.dantu/.gradle/caches/transforms-1/files-1.1/runtime-1.0.3.aar/5d032881692328e2911aedde37367c81/AndroidManifest.xml:20:5-22:41
MERGED from [android.arch.lifecycle:runtime:1.0.3] /Users/swaroop.dantu/.gradle/caches/transforms-1/files-1.1/runtime-1.0.3.aar/5d032881692328e2911aedde37367c81/AndroidManifest.xml:20:5-22:41
INJECTED from /Users/swaroop.dantu/Downloads/android-BluetoothChat-master/Application/src/main/AndroidManifest.xml
INJECTED from /Users/swaroop.dantu/Downloads/android-BluetoothChat-master/Application/src/main/AndroidManifest.xml
	android:targetSdkVersion
		INJECTED from /Users/swaroop.dantu/Downloads/android-BluetoothChat-master/Application/src/main/AndroidManifest.xml
		ADDED from /Users/swaroop.dantu/Downloads/android-BluetoothChat-master/Application/src/main/AndroidManifest.xml
		INJECTED from /Users/swaroop.dantu/Downloads/android-BluetoothChat-master/Application/src/main/AndroidManifest.xml
	android:minSdkVersion
		INJECTED from /Users/swaroop.dantu/Downloads/android-BluetoothChat-master/Application/src/main/AndroidManifest.xml
		ADDED from /Users/swaroop.dantu/Downloads/android-BluetoothChat-master/Application/src/main/AndroidManifest.xml
		INJECTED from /Users/swaroop.dantu/Downloads/android-BluetoothChat-master/Application/src/main/AndroidManifest.xml
